[
    // This property holds the class (type, variety...) of the device. G37C is ignorant about actual classes. 
    // For G37C this is just a string literal used to determine if two or more devices belong together.
  	{ 
  	"name" : "Device class",
  	// If a user wants to address only devices of this class, (s)he must use this exact string
	"propValue" : "Indoor thermometer",
	// The value must be String.
	"propValueType" : "java.lang.String",
	"kindOfData" : "SYSTEM_DATA",
	// We make this property modifiable so that the end-user can group devices as per his/her 
	// preferences.   
	"isReadOnly" :  true,
	"eFlags" : 0
	},
    // This property provides a human-readable description of the device.
	{
	"name" : "Device description",
	"propValue" : "This is a wireless indoor thermometer AcuRite 782",
	"propValueType" : "java.lang.String", 
	"kindOfData" : "SYSTEM_DATA", 
	"isReadOnly" : false, // No harm in letting the end-user modify it.
	"eFlags" : 0 
	},
    // Although for G37 this is just an abstract Boolean value, in a real-life system changing this value
    // would trigger a firmware API call / interrupt that actually switches the thermometer on and off.
    {
  	"name" : "Is On",
	"propValue" : "false",  // Off upon installation.
	"propValueType" : "java.lang.Boolean",
	"kindOfData" : "OPERATIONAL_SETTING",
	"isReadOnly" : false, //  Important!  Otherwise our sensor will be impossible to switch on.
	"eFlags" : 0 
    },
    // For G37 this is another abstract value, this time integer.  But in a real-life system it would be mapped
    // to a firmware API call/register that provides the current temperature reading (we assume grad C).
    {
  	"name" : "Temperature",
	"propValue" : "0",  // Default value.
	"propValueType" : "java.lang.Integer",
	"kindOfData" : "OPERATIONAL_SETTING",
	"isReadOnly" : true, //  There is no reason to let anyone, other than the device itself, change this value.
	"eFlags" : 0 
    },
    // This property contains the firmware version as a String object.
    {
  	"name" : "Firmware Version",
	"propValue" : "4.12a", // The initial version as shipped from the factory.
	"propValueType" : "java.lang.String",
	"kindOfData" : "MAINTENANCE_DATA",  // So that device suppliers can access it.
	"isReadOnly" : false, // Because we need to change it following firmware updates.
	"eFlags" : 0  
    },
    // This property serves to send the new firmware to the device. (To send, not to store).
    // As soon as it receives a new value, G37D is supposed to issue the appropriate API calls to the firmware
    //  to update it.  In our proof-of-concept we'll only imitate that.
    {
  	"name" : "Firmware Buffer",
	"propValue" : "",
	"propValueType" : "java.lang.String",  // Firmware must be binary-to-text encoded
	"kindOfData" : "MAINTENANCE_DATA",
	"isReadOnly" : false,
	"eFlags" : 0
    },
    // This property holds the uptime of the device - the cumulative number of seconds that this device ever functioned. 
    // If a device does not have this field, then perhaps there is some reason for that, that we just cannot conceive of. 
    {
  	"name" : "Uptime",
	"propValue" : "0",
	"propValueType" : "java.lang.Long", 
	"kindOfData" : "MAINTENANCE_DATA",
	"isReadOnly" : false,
	"eFlags" : 0
    },
	// This property is a storage container for historical usage data. 
    {
  	"name" : "Historical usage data",
	"propValue" : "",
	"propValueType" : "java.lang.String",  
	"kindOfData" : "USAGE_DATA",
	"isReadOnly" : "false",
	"eFlags" : 0
    },
	// This property is a storage for historical maintenance data. 
    {
  	"name" : "Historical maintenance data",
	"propValue" : "",
	"propValueType" : "java.lang.String",  
	"kindOfData" : "MAINTENANCE_DATA",
	"isReadOnly" : "false",
	"eFlags" : 0
    }
]
