127.0.0.1 - - [15/May/2019:01:39:41 +0200] "GET / HTTP/1.1" 200 11403
0:0:0:0:0:0:0:1 - - [15/May/2019:01:39:56 +0200] "GET / HTTP/1.1" 200 11403
0:0:0:0:0:0:0:1 - - [15/May/2019:01:39:56 +0200] "GET /tomcat.png HTTP/1.1" 200 5103
0:0:0:0:0:0:0:1 - - [15/May/2019:01:39:56 +0200] "GET /tomcat.css HTTP/1.1" 200 5931
0:0:0:0:0:0:0:1 - - [15/May/2019:01:39:56 +0200] "GET /asf-logo-wide.svg HTTP/1.1" 200 27530
0:0:0:0:0:0:0:1 - - [15/May/2019:01:39:56 +0200] "GET /bg-nav.png HTTP/1.1" 200 1401
0:0:0:0:0:0:0:1 - - [15/May/2019:01:39:56 +0200] "GET /bg-button.png HTTP/1.1" 200 713
0:0:0:0:0:0:0:1 - - [15/May/2019:01:39:56 +0200] "GET /bg-upper.png HTTP/1.1" 200 3103
0:0:0:0:0:0:0:1 - - [15/May/2019:01:39:56 +0200] "GET /bg-middle.png HTTP/1.1" 200 1918
0:0:0:0:0:0:0:1 - - [15/May/2019:01:40:03 +0200] "GET /index.jsp HTTP/1.1" 200 11403
127.0.0.1 - - [15/May/2019:01:45:39 +0200] "GET / HTTP/1.1" 200 11403
0:0:0:0:0:0:0:1 - - [15/May/2019:01:45:40 +0200] "GET /G37/ HTTP/1.1" 404 1089
0:0:0:0:0:0:0:1 - - [15/May/2019:01:45:45 +0200] "GET / HTTP/1.1" 200 11403
0:0:0:0:0:0:0:1 - - [15/May/2019:01:45:45 +0200] "GET /tomcat.css HTTP/1.1" 200 5931
0:0:0:0:0:0:0:1 - - [15/May/2019:01:45:45 +0200] "GET /tomcat.png HTTP/1.1" 200 5103
0:0:0:0:0:0:0:1 - - [15/May/2019:01:45:45 +0200] "GET /bg-upper.png HTTP/1.1" 200 3103
0:0:0:0:0:0:0:1 - - [15/May/2019:01:45:45 +0200] "GET /asf-logo-wide.svg HTTP/1.1" 200 27530
0:0:0:0:0:0:0:1 - - [15/May/2019:01:45:45 +0200] "GET /bg-nav.png HTTP/1.1" 200 1401
0:0:0:0:0:0:0:1 - - [15/May/2019:01:45:45 +0200] "GET /bg-button.png HTTP/1.1" 200 713
0:0:0:0:0:0:0:1 - - [15/May/2019:01:45:45 +0200] "GET /bg-middle.png HTTP/1.1" 200 1918
127.0.0.1 - - [15/May/2019:01:49:46 +0200] "GET / HTTP/1.1" 200 11403
127.0.0.1 - - [15/May/2019:01:52:23 +0200] "GET / HTTP/1.1" 200 11403
127.0.0.1 - - [15/May/2019:01:53:22 +0200] "GET / HTTP/1.1" 200 11403
127.0.0.1 - - [15/May/2019:11:22:55 +0200] "GET / HTTP/1.1" 200 11403
0:0:0:0:0:0:0:1 - - [15/May/2019:11:22:56 +0200] "GET /G37/ HTTP/1.1" 404 1089
0:0:0:0:0:0:0:1 - - [15/May/2019:11:23:01 +0200] "GET / HTTP/1.1" 200 11403
0:0:0:0:0:0:0:1 - - [15/May/2019:11:23:01 +0200] "GET /tomcat.css HTTP/1.1" 304 -
0:0:0:0:0:0:0:1 - - [15/May/2019:11:23:01 +0200] "GET /tomcat.png HTTP/1.1" 304 -
0:0:0:0:0:0:0:1 - - [15/May/2019:11:23:01 +0200] "GET /bg-upper.png HTTP/1.1" 304 -
0:0:0:0:0:0:0:1 - - [15/May/2019:11:23:01 +0200] "GET /asf-logo-wide.svg HTTP/1.1" 304 -
0:0:0:0:0:0:0:1 - - [15/May/2019:11:23:01 +0200] "GET /bg-nav.png HTTP/1.1" 304 -
0:0:0:0:0:0:0:1 - - [15/May/2019:11:23:01 +0200] "GET /bg-button.png HTTP/1.1" 304 -
0:0:0:0:0:0:0:1 - - [15/May/2019:11:23:01 +0200] "GET /bg-middle.png HTTP/1.1" 304 -
127.0.0.1 - - [15/May/2019:11:46:53 +0200] "GET / HTTP/1.1" 200 11403
127.0.0.1 - - [15/May/2019:11:48:50 +0200] "POST /login/blah HTTP/1.1" 404 1099
0:0:0:0:0:0:0:1 - - [15/May/2019:11:49:06 +0200] "GET / HTTP/1.1" 200 11403
0:0:0:0:0:0:0:1 - - [15/May/2019:11:49:06 +0200] "GET /tomcat.css HTTP/1.1" 200 5931
0:0:0:0:0:0:0:1 - - [15/May/2019:11:49:06 +0200] "GET /tomcat.png HTTP/1.1" 200 5103
0:0:0:0:0:0:0:1 - - [15/May/2019:11:49:07 +0200] "GET /asf-logo-wide.svg HTTP/1.1" 200 27530
0:0:0:0:0:0:0:1 - - [15/May/2019:11:49:07 +0200] "GET /bg-nav.png HTTP/1.1" 200 1401
0:0:0:0:0:0:0:1 - - [15/May/2019:11:49:07 +0200] "GET /bg-button.png HTTP/1.1" 200 713
0:0:0:0:0:0:0:1 - - [15/May/2019:11:49:07 +0200] "GET /bg-upper.png HTTP/1.1" 200 3103
0:0:0:0:0:0:0:1 - - [15/May/2019:11:49:07 +0200] "GET /bg-middle.png HTTP/1.1" 200 1918
127.0.0.1 - - [15/May/2019:12:06:19 +0200] "GET / HTTP/1.1" 200 11403
0:0:0:0:0:0:0:1 - - [15/May/2019:12:06:20 +0200] "GET /G37/ HTTP/1.1" 404 1089
127.0.0.1 - - [15/May/2019:12:06:37 +0200] "POST /login/blah HTTP/1.1" 404 1099
0:0:0:0:0:0:0:1 - - [15/May/2019:12:06:57 +0200] "GET /login HTTP/1.1" 404 1090
127.0.0.1 - - [15/May/2019:12:12:06 +0200] "GET /login/blah HTTP/1.1" 404 1099
127.0.0.1 - - [15/May/2019:12:12:40 +0200] "GET /login/blah HTTP/1.1" 404 1099
127.0.0.1 - - [15/May/2019:12:13:32 +0200] "GET /login/blah HTTP/1.1" 404 1099
127.0.0.1 - - [15/May/2019:12:15:44 +0200] "GET / HTTP/1.1" 200 11403
0:0:0:0:0:0:0:1 - - [15/May/2019:12:15:46 +0200] "GET /G37/ HTTP/1.1" 404 1089
0:0:0:0:0:0:0:1 - - [15/May/2019:12:15:50 +0200] "GET /login HTTP/1.1" 404 1090
0:0:0:0:0:0:0:1 - - [15/May/2019:12:17:47 +0200] "GET / HTTP/1.1" 200 11403
0:0:0:0:0:0:0:1 - - [15/May/2019:12:17:48 +0200] "GET /tomcat.png HTTP/1.1" 200 5103
0:0:0:0:0:0:0:1 - - [15/May/2019:12:17:48 +0200] "GET /asf-logo-wide.svg HTTP/1.1" 200 27530
0:0:0:0:0:0:0:1 - - [15/May/2019:12:17:48 +0200] "GET /bg-nav.png HTTP/1.1" 200 1401
0:0:0:0:0:0:0:1 - - [15/May/2019:12:17:48 +0200] "GET /bg-upper.png HTTP/1.1" 200 3103
0:0:0:0:0:0:0:1 - - [15/May/2019:12:17:48 +0200] "GET /bg-middle.png HTTP/1.1" 200 1918
0:0:0:0:0:0:0:1 - - [15/May/2019:12:17:48 +0200] "GET /bg-button.png HTTP/1.1" 200 713
0:0:0:0:0:0:0:1 - - [15/May/2019:12:17:51 +0200] "GET /login HTTP/1.1" 404 1090
127.0.0.1 - - [15/May/2019:12:19:38 +0200] "GET / HTTP/1.1" 200 11403
0:0:0:0:0:0:0:1 - - [15/May/2019:12:19:45 +0200] "GET / HTTP/1.1" 200 11403
0:0:0:0:0:0:0:1 - - [15/May/2019:12:19:48 +0200] "GET /login HTTP/1.1" 404 1090
127.0.0.1 - - [15/May/2019:12:20:59 +0200] "GET / HTTP/1.1" 200 11403
0:0:0:0:0:0:0:1 - - [15/May/2019:12:21:02 +0200] "GET /login HTTP/1.1" 404 1090
0:0:0:0:0:0:0:1 - - [15/May/2019:12:21:02 +0200] "GET /favicon.ico HTTP/1.1" 200 21630
0:0:0:0:0:0:0:1 - - [15/May/2019:12:21:05 +0200] "GET / HTTP/1.1" 200 11403
0:0:0:0:0:0:0:1 - - [15/May/2019:12:21:12 +0200] "GET /login HTTP/1.1" 404 1090
0:0:0:0:0:0:0:1 - - [15/May/2019:12:21:16 +0200] "GET /login/login HTTP/1.1" 404 1100
127.0.0.1 - - [15/May/2019:12:24:42 +0200] "GET / HTTP/1.1" 200 11403
0:0:0:0:0:0:0:1 - - [15/May/2019:12:24:43 +0200] "GET /G37/ HTTP/1.1" 404 1089
0:0:0:0:0:0:0:1 - - [15/May/2019:12:24:47 +0200] "GET / HTTP/1.1" 200 11403
0:0:0:0:0:0:0:1 - - [15/May/2019:12:26:53 +0200] "GET / HTTP/1.1" 200 11403
0:0:0:0:0:0:0:1 - - [15/May/2019:12:26:56 +0200] "GET /login HTTP/1.1" 404 1090
0:0:0:0:0:0:0:1 - - [15/May/2019:12:27:54 +0200] "GET / HTTP/1.1" 200 11403
0:0:0:0:0:0:0:1 - - [15/May/2019:12:27:58 +0200] "GET /login HTTP/1.1" 404 1090
0:0:0:0:0:0:0:1 - - [15/May/2019:12:28:04 +0200] "GET /rest HTTP/1.1" 404 1089
0:0:0:0:0:0:0:1 - - [15/May/2019:12:28:07 +0200] "GET /rest/login HTTP/1.1" 404 1099
0:0:0:0:0:0:0:1 - - [15/May/2019:12:28:41 +0200] "GET /G37/login HTTP/1.1" 404 1089
0:0:0:0:0:0:0:1 - - [15/May/2019:12:28:46 +0200] "GET /G37/rest HTTP/1.1" 404 1089
0:0:0:0:0:0:0:1 - - [15/May/2019:12:28:48 +0200] "GET /G37/rest/login HTTP/1.1" 404 1089
0:0:0:0:0:0:0:1 - - [15/May/2019:12:28:50 +0200] "GET /G37/rest/login HTTP/1.1" 404 1089
0:0:0:0:0:0:0:1 - - [15/May/2019:12:28:50 +0200] "GET /favicon.ico HTTP/1.1" 200 21630
0:0:0:0:0:0:0:1 - - [15/May/2019:12:28:50 +0200] "GET /G37/rest/login HTTP/1.1" 404 1089
0:0:0:0:0:0:0:1 - - [15/May/2019:12:28:51 +0200] "GET /favicon.ico HTTP/1.1" 200 21630
0:0:0:0:0:0:0:1 - - [15/May/2019:12:28:51 +0200] "GET /G37/rest/login HTTP/1.1" 404 1089
0:0:0:0:0:0:0:1 - - [15/May/2019:12:28:51 +0200] "GET /favicon.ico HTTP/1.1" 200 21630
0:0:0:0:0:0:0:1 - - [15/May/2019:12:28:51 +0200] "GET /G37/rest/login HTTP/1.1" 404 1089
0:0:0:0:0:0:0:1 - - [15/May/2019:12:28:51 +0200] "GET /favicon.ico HTTP/1.1" 200 21630
0:0:0:0:0:0:0:1 - - [15/May/2019:12:28:51 +0200] "GET /G37/rest/login HTTP/1.1" 404 1089
0:0:0:0:0:0:0:1 - - [15/May/2019:12:28:51 +0200] "GET /favicon.ico HTTP/1.1" 200 21630
127.0.0.1 - - [15/May/2019:12:30:11 +0200] "GET / HTTP/1.1" 200 11403
0:0:0:0:0:0:0:1 - - [15/May/2019:12:30:18 +0200] "GET /G37 HTTP/1.1" 302 -
0:0:0:0:0:0:0:1 - - [15/May/2019:12:30:19 +0200] "GET /G37/ HTTP/1.1" 200 98
0:0:0:0:0:0:0:1 - - [15/May/2019:12:30:23 +0200] "GET /G37/login HTTP/1.1" 404 1098
0:0:0:0:0:0:0:1 - - [15/May/2019:12:30:33 +0200] "GET /G37/rest/login HTTP/1.1" 404 1089
0:0:0:0:0:0:0:1 - - [15/May/2019:12:30:36 +0200] "GET /G37/rest/ HTTP/1.1" 404 1089
0:0:0:0:0:0:0:1 - - [15/May/2019:12:30:50 +0200] "GET /G37/login HTTP/1.1" 404 1098
0:0:0:0:0:0:0:1 - - [15/May/2019:12:30:55 +0200] "GET /G37/G37/login HTTP/1.1" 404 1106
0:0:0:0:0:0:0:1 - - [15/May/2019:12:30:58 +0200] "GET /G37/rest/G37/login HTTP/1.1" 404 1089
0:0:0:0:0:0:0:1 - - [15/May/2019:12:31:01 +0200] "GET /G37/rest/G37/ HTTP/1.1" 404 1089
0:0:0:0:0:0:0:1 - - [15/May/2019:12:31:03 +0200] "GET /G37/ HTTP/1.1" 200 98
127.0.0.1 - - [15/May/2019:12:32:19 +0200] "GET / HTTP/1.1" 200 11403
0:0:0:0:0:0:0:1 - - [15/May/2019:12:32:21 +0200] "GET /G37/ HTTP/1.1" 404 1089
0:0:0:0:0:0:0:1 - - [15/May/2019:12:32:23 +0200] "GET /G37/ HTTP/1.1" 404 1089
0:0:0:0:0:0:0:1 - - [15/May/2019:12:32:32 +0200] "GET /G37 HTTP/1.1" 404 1089
0:0:0:0:0:0:0:1 - - [15/May/2019:12:33:49 +0200] "GET /G37 HTTP/1.1" 404 1089
0:0:0:0:0:0:0:1 - - [15/May/2019:12:33:52 +0200] "GET /G37/ HTTP/1.1" 404 1089
0:0:0:0:0:0:0:1 - - [15/May/2019:12:34:10 +0200] "GET /G37/ HTTP/1.1" 404 1089
0:0:0:0:0:0:0:1 - - [15/May/2019:12:34:10 +0200] "GET /favicon.ico HTTP/1.1" 200 21630
0:0:0:0:0:0:0:1 - - [15/May/2019:12:34:11 +0200] "GET /G37/ HTTP/1.1" 404 1089
0:0:0:0:0:0:0:1 - - [15/May/2019:12:34:11 +0200] "GET /favicon.ico HTTP/1.1" 200 21630
0:0:0:0:0:0:0:1 - - [15/May/2019:12:34:12 +0200] "GET /G37/ HTTP/1.1" 404 1089
0:0:0:0:0:0:0:1 - - [15/May/2019:12:34:12 +0200] "GET /favicon.ico HTTP/1.1" 200 21630
0:0:0:0:0:0:0:1 - - [15/May/2019:12:34:12 +0200] "GET /G37/ HTTP/1.1" 404 1089
0:0:0:0:0:0:0:1 - - [15/May/2019:12:34:12 +0200] "GET /favicon.ico HTTP/1.1" 200 21630
127.0.0.1 - - [15/May/2019:12:38:08 +0200] "GET / HTTP/1.1" 200 11403
0:0:0:0:0:0:0:1 - - [15/May/2019:12:38:08 +0200] "GET / HTTP/1.1" 200 11403
0:0:0:0:0:0:0:1 - - [15/May/2019:12:38:09 +0200] "GET /G37/ HTTP/1.1" 404 1089
0:0:0:0:0:0:0:1 - - [15/May/2019:12:38:13 +0200] "GET / HTTP/1.1" 200 11403
0:0:0:0:0:0:0:1 - - [15/May/2019:12:38:14 +0200] "GET /tomcat.css HTTP/1.1" 304 -
0:0:0:0:0:0:0:1 - - [15/May/2019:12:38:14 +0200] "GET /tomcat.png HTTP/1.1" 304 -
0:0:0:0:0:0:0:1 - - [15/May/2019:12:38:14 +0200] "GET /bg-upper.png HTTP/1.1" 304 -
0:0:0:0:0:0:0:1 - - [15/May/2019:12:38:14 +0200] "GET /bg-middle.png HTTP/1.1" 304 -
0:0:0:0:0:0:0:1 - - [15/May/2019:12:38:14 +0200] "GET /bg-button.png HTTP/1.1" 304 -
0:0:0:0:0:0:0:1 - - [15/May/2019:12:38:14 +0200] "GET /asf-logo-wide.svg HTTP/1.1" 304 -
0:0:0:0:0:0:0:1 - - [15/May/2019:12:38:14 +0200] "GET /bg-nav.png HTTP/1.1" 304 -
0:0:0:0:0:0:0:1 - - [15/May/2019:12:38:20 +0200] "GET /G37 HTTP/1.1" 404 1089
0:0:0:0:0:0:0:1 - - [15/May/2019:12:38:23 +0200] "GET /login HTTP/1.1" 404 1090
0:0:0:0:0:0:0:1 - - [15/May/2019:12:38:30 +0200] "GET /G37/login HTTP/1.1" 404 1089
0:0:0:0:0:0:0:1 - - [15/May/2019:12:40:23 +0200] "GET /login HTTP/1.1" 404 1090
127.0.0.1 - - [15/May/2019:12:44:09 +0200] "GET / HTTP/1.1" 200 11403
0:0:0:0:0:0:0:1 - - [15/May/2019:12:44:43 +0200] "GET / HTTP/1.1" 200 11403
127.0.0.1 - - [15/May/2019:12:54:07 +0200] "GET / HTTP/1.1" 200 11403
0:0:0:0:0:0:0:1 - - [15/May/2019:12:54:08 +0200] "GET /G37/ HTTP/1.1" 404 1089
0:0:0:0:0:0:0:1 - - [15/May/2019:12:54:12 +0200] "GET / HTTP/1.1" 200 11403
0:0:0:0:0:0:0:1 - - [15/May/2019:12:54:14 +0200] "GET /login HTTP/1.1" 404 1090
0:0:0:0:0:0:0:1 - - [15/May/2019:12:54:28 +0200] "GET /G37/login HTTP/1.1" 404 1089
127.0.0.1 - - [15/May/2019:13:02:37 +0200] "GET / HTTP/1.1" 200 11403
0:0:0:0:0:0:0:1 - - [15/May/2019:13:02:44 +0200] "GET / HTTP/1.1" 200 11403
0:0:0:0:0:0:0:1 - - [15/May/2019:13:02:44 +0200] "GET /tomcat.css HTTP/1.1" 304 -
0:0:0:0:0:0:0:1 - - [15/May/2019:13:02:47 +0200] "GET /G37 HTTP/1.1" 302 -
0:0:0:0:0:0:0:1 - - [15/May/2019:13:02:47 +0200] "GET /G37/ HTTP/1.1" 200 98
0:0:0:0:0:0:0:1 - - [15/May/2019:13:02:50 +0200] "GET /G37/logi HTTP/1.1" 404 1097
0:0:0:0:0:0:0:1 - - [15/May/2019:13:02:51 +0200] "GET /G37/login HTTP/1.1" 404 1098
0:0:0:0:0:0:0:1 - - [15/May/2019:13:02:59 +0200] "GET /G37/G37/login HTTP/1.1" 404 1106
0:0:0:0:0:0:0:1 - - [15/May/2019:13:03:01 +0200] "GET /G37/rest HTTP/1.1" 404 1089
0:0:0:0:0:0:0:1 - - [15/May/2019:13:03:04 +0200] "GET /G37/rest/login HTTP/1.1" 404 1089
0:0:0:0:0:0:0:1 - - [15/May/2019:13:03:11 +0200] "GET /G37/G37/rest/login HTTP/1.1" 404 1115
127.0.0.1 - - [15/May/2019:13:03:45 +0200] "GET / HTTP/1.1" 200 11403
0:0:0:0:0:0:0:1 - - [15/May/2019:13:03:51 +0200] "GET / HTTP/1.1" 200 11403
0:0:0:0:0:0:0:1 - - [15/May/2019:13:03:55 +0200] "GET /login HTTP/1.1" 404 1090
0:0:0:0:0:0:0:1 - - [15/May/2019:13:03:59 +0200] "GET /G37 HTTP/1.1" 302 -
0:0:0:0:0:0:0:1 - - [15/May/2019:13:03:59 +0200] "GET /G37/ HTTP/1.1" 200 98
0:0:0:0:0:0:0:1 - - [15/May/2019:13:04:01 +0200] "GET /G37/login HTTP/1.1" 404 1098
0:0:0:0:0:0:0:1 - - [15/May/2019:13:04:05 +0200] "GET /G37/rest HTTP/1.1" 404 1089
0:0:0:0:0:0:0:1 - - [15/May/2019:13:04:12 +0200] "GET /rest/G37 HTTP/1.1" 404 1097
0:0:0:0:0:0:0:1 - - [15/May/2019:13:04:16 +0200] "GET /G37/login HTTP/1.1" 404 1098
0:0:0:0:0:0:0:1 - - [15/May/2019:13:04:24 +0200] "GET /G37/rest/login HTTP/1.1" 404 1089
127.0.0.1 - - [15/May/2019:13:06:14 +0200] "GET / HTTP/1.1" 200 11403
0:0:0:0:0:0:0:1 - - [15/May/2019:13:06:19 +0200] "GET /G37 HTTP/1.1" 302 -
0:0:0:0:0:0:0:1 - - [15/May/2019:13:06:19 +0200] "GET /G37/ HTTP/1.1" 200 98
0:0:0:0:0:0:0:1 - - [15/May/2019:13:06:23 +0200] "GET /G37/rest/login HTTP/1.1" 404 1089
127.0.0.1 - - [15/May/2019:13:08:23 +0200] "GET / HTTP/1.1" 200 11403
0:0:0:0:0:0:0:1 - - [15/May/2019:13:08:25 +0200] "GET /G37/ HTTP/1.1" 404 1089
0:0:0:0:0:0:0:1 - - [15/May/2019:13:08:28 +0200] "GET / HTTP/1.1" 200 11403
0:0:0:0:0:0:0:1 - - [15/May/2019:13:08:30 +0200] "GET /login HTTP/1.1" 404 1090
0:0:0:0:0:0:0:1 - - [15/May/2019:13:08:35 +0200] "GET /rest/login HTTP/1.1" 404 1099
0:0:0:0:0:0:0:1 - - [15/May/2019:13:10:17 +0200] "GET /login HTTP/1.1" 404 1090
127.0.0.1 - - [15/May/2019:13:14:18 +0200] "GET / HTTP/1.1" 200 11403
0:0:0:0:0:0:0:1 - - [15/May/2019:13:14:19 +0200] "GET /G37/ HTTP/1.1" 200 98
0:0:0:0:0:0:0:1 - - [15/May/2019:13:14:24 +0200] "GET /G37/login HTTP/1.1" 404 1098
0:0:0:0:0:0:0:1 - - [15/May/2019:13:14:36 +0200] "GET /G37/api HTTP/1.1" 404 1089
0:0:0:0:0:0:0:1 - - [15/May/2019:13:14:39 +0200] "GET /G37/api/login HTTP/1.1" 404 1089
0:0:0:0:0:0:0:1 - - [15/May/2019:13:14:44 +0200] "GET /G37/api/login HTTP/1.1" 404 1089
127.0.0.1 - - [15/May/2019:13:19:33 +0200] "GET / HTTP/1.1" 200 11403
0:0:0:0:0:0:0:1 - - [15/May/2019:13:19:34 +0200] "GET /G37/ HTTP/1.1" 200 98
0:0:0:0:0:0:0:1 - - [15/May/2019:13:19:43 +0200] "GET /G37/ HTTP/1.1" 200 98
0:0:0:0:0:0:0:1 - - [15/May/2019:13:19:46 +0200] "GET /G37/api HTTP/1.1" 404 1089
0:0:0:0:0:0:0:1 - - [15/May/2019:13:19:48 +0200] "GET /G37/api/login HTTP/1.1" 404 1089
0:0:0:0:0:0:0:1 - - [15/May/2019:13:19:50 +0200] "GET /G37/api/login HTTP/1.1" 404 1089
0:0:0:0:0:0:0:1 - - [15/May/2019:13:19:52 +0200] "GET /G37/api/login HTTP/1.1" 404 1089
0:0:0:0:0:0:0:1 - - [15/May/2019:13:19:52 +0200] "GET /favicon.ico HTTP/1.1" 200 21630
0:0:0:0:0:0:0:1 - - [15/May/2019:13:19:52 +0200] "GET /G37/api/login HTTP/1.1" 404 1089
0:0:0:0:0:0:0:1 - - [15/May/2019:13:19:52 +0200] "GET /favicon.ico HTTP/1.1" 200 21630
0:0:0:0:0:0:0:1 - - [15/May/2019:13:19:52 +0200] "GET /G37/api/login HTTP/1.1" 404 1089
0:0:0:0:0:0:0:1 - - [15/May/2019:13:19:53 +0200] "GET /favicon.ico HTTP/1.1" 200 21630
0:0:0:0:0:0:0:1 - - [15/May/2019:13:19:53 +0200] "GET /G37/api/login HTTP/1.1" 404 1089
0:0:0:0:0:0:0:1 - - [15/May/2019:13:19:53 +0200] "GET /favicon.ico HTTP/1.1" 200 21630
0:0:0:0:0:0:0:1 - - [15/May/2019:13:19:53 +0200] "GET /G37/api/login HTTP/1.1" 404 1089
0:0:0:0:0:0:0:1 - - [15/May/2019:13:19:53 +0200] "GET /favicon.ico HTTP/1.1" 200 21630
0:0:0:0:0:0:0:1 - - [15/May/2019:13:19:53 +0200] "GET /G37/api/login HTTP/1.1" 404 1089
0:0:0:0:0:0:0:1 - - [15/May/2019:13:19:53 +0200] "GET /favicon.ico HTTP/1.1" 200 21630
0:0:0:0:0:0:0:1 - - [15/May/2019:13:19:53 +0200] "GET /G37/api/login HTTP/1.1" 404 1089
0:0:0:0:0:0:0:1 - - [15/May/2019:13:19:53 +0200] "GET /favicon.ico HTTP/1.1" 200 21630
0:0:0:0:0:0:0:1 - - [15/May/2019:13:19:53 +0200] "GET /G37/api/login HTTP/1.1" 404 1089
0:0:0:0:0:0:0:1 - - [15/May/2019:13:19:53 +0200] "GET /favicon.ico HTTP/1.1" 200 21630
0:0:0:0:0:0:0:1 - - [15/May/2019:13:19:54 +0200] "GET /G37/api/login HTTP/1.1" 404 1089
0:0:0:0:0:0:0:1 - - [15/May/2019:13:19:54 +0200] "GET /favicon.ico HTTP/1.1" 200 21630
0:0:0:0:0:0:0:1 - - [15/May/2019:13:19:54 +0200] "GET /G37/api/login HTTP/1.1" 404 1089
0:0:0:0:0:0:0:1 - - [15/May/2019:13:19:54 +0200] "GET /favicon.ico HTTP/1.1" 200 21630
0:0:0:0:0:0:0:1 - - [15/May/2019:13:19:54 +0200] "GET /G37/api/login HTTP/1.1" 404 1089
0:0:0:0:0:0:0:1 - - [15/May/2019:13:19:54 +0200] "GET /favicon.ico HTTP/1.1" 200 21630
0:0:0:0:0:0:0:1 - - [15/May/2019:13:19:54 +0200] "GET /G37/api/login HTTP/1.1" 404 1089
0:0:0:0:0:0:0:1 - - [15/May/2019:13:19:54 +0200] "GET /favicon.ico HTTP/1.1" 200 21630
0:0:0:0:0:0:0:1 - - [15/May/2019:13:19:54 +0200] "GET /G37/api/login HTTP/1.1" 404 1089
0:0:0:0:0:0:0:1 - - [15/May/2019:13:19:54 +0200] "GET /favicon.ico HTTP/1.1" 200 21630
0:0:0:0:0:0:0:1 - - [15/May/2019:13:19:54 +0200] "GET /G37/api/login HTTP/1.1" 404 1089
0:0:0:0:0:0:0:1 - - [15/May/2019:13:19:55 +0200] "GET /favicon.ico HTTP/1.1" 200 21630
0:0:0:0:0:0:0:1 - - [15/May/2019:13:19:55 +0200] "GET /G37/api/login HTTP/1.1" 404 1089
0:0:0:0:0:0:0:1 - - [15/May/2019:13:19:55 +0200] "GET /favicon.ico HTTP/1.1" 200 21630
0:0:0:0:0:0:0:1 - - [15/May/2019:13:19:55 +0200] "GET /G37/api/login HTTP/1.1" 404 1089
0:0:0:0:0:0:0:1 - - [15/May/2019:13:19:55 +0200] "GET /favicon.ico HTTP/1.1" 200 21630
0:0:0:0:0:0:0:1 - - [15/May/2019:13:19:55 +0200] "GET /G37/api/login HTTP/1.1" 404 1089
0:0:0:0:0:0:0:1 - - [15/May/2019:13:19:55 +0200] "GET /favicon.ico HTTP/1.1" 200 21630
0:0:0:0:0:0:0:1 - - [15/May/2019:13:19:55 +0200] "GET /G37/api/login HTTP/1.1" 404 1089
0:0:0:0:0:0:0:1 - - [15/May/2019:13:19:55 +0200] "GET /favicon.ico HTTP/1.1" 200 21630
127.0.0.1 - - [15/May/2019:13:27:37 +0200] "GET / HTTP/1.1" 200 11403
0:0:0:0:0:0:0:1 - - [15/May/2019:13:27:38 +0200] "GET /G37/ HTTP/1.1" 200 98
0:0:0:0:0:0:0:1 - - [15/May/2019:13:28:30 +0200] "GET /G37/api HTTP/1.1" 404 1089
0:0:0:0:0:0:0:1 - - [15/May/2019:13:28:33 +0200] "GET /G37/api/login HTTP/1.1" 404 1089
0:0:0:0:0:0:0:1 - - [15/May/2019:13:28:36 +0200] "GET /G37/api/login HTTP/1.1" 404 1089
0:0:0:0:0:0:0:1 - - [15/May/2019:13:28:36 +0200] "GET /favicon.ico HTTP/1.1" 200 21630
0:0:0:0:0:0:0:1 - - [15/May/2019:13:28:37 +0200] "GET /G37/api/login HTTP/1.1" 404 1089
0:0:0:0:0:0:0:1 - - [15/May/2019:13:28:37 +0200] "GET /favicon.ico HTTP/1.1" 200 21630
0:0:0:0:0:0:0:1 - - [15/May/2019:13:28:39 +0200] "GET /G37/api/login HTTP/1.1" 404 1089
0:0:0:0:0:0:0:1 - - [15/May/2019:13:28:39 +0200] "GET /favicon.ico HTTP/1.1" 200 21630
0:0:0:0:0:0:0:1 - - [15/May/2019:13:28:40 +0200] "GET /G37 HTTP/1.1" 302 -
0:0:0:0:0:0:0:1 - - [15/May/2019:13:28:40 +0200] "GET /G37/ HTTP/1.1" 200 98
127.0.0.1 - - [15/May/2019:13:32:21 +0200] "GET / HTTP/1.1" 200 11403
0:0:0:0:0:0:0:1 - - [15/May/2019:13:32:22 +0200] "GET /G37/ HTTP/1.1" 200 98
0:0:0:0:0:0:0:1 - - [15/May/2019:13:32:27 +0200] "GET /G37/api/login HTTP/1.1" 404 1089
127.0.0.1 - - [15/May/2019:13:34:38 +0200] "GET / HTTP/1.1" 200 11403
0:0:0:0:0:0:0:1 - - [15/May/2019:13:34:39 +0200] "GET /G37/ HTTP/1.1" 200 98
0:0:0:0:0:0:0:1 - - [15/May/2019:13:34:44 +0200] "GET /G37/api HTTP/1.1" 404 1089
0:0:0:0:0:0:0:1 - - [15/May/2019:13:34:47 +0200] "GET /G37/api/login HTTP/1.1" 404 1089
0:0:0:0:0:0:0:1 - - [15/May/2019:13:34:48 +0200] "GET /G37/api/login/ HTTP/1.1" 404 1089
0:0:0:0:0:0:0:1 - - [15/May/2019:13:34:51 +0200] "GET /G37/api/login/ HTTP/1.1" 404 1089
0:0:0:0:0:0:0:1 - - [15/May/2019:13:35:01 +0200] "GET /G37/api/login/validUser HTTP/1.1" 404 1089
127.0.0.1 - - [15/May/2019:22:23:59 +0200] "GET / HTTP/1.1" 200 11403
0:0:0:0:0:0:0:1 - - [15/May/2019:22:24:04 +0200] "GET / HTTP/1.1" 200 11403
0:0:0:0:0:0:0:1 - - [15/May/2019:22:24:04 +0200] "GET /tomcat.css HTTP/1.1" 304 -
0:0:0:0:0:0:0:1 - - [15/May/2019:22:24:04 +0200] "GET /tomcat.png HTTP/1.1" 200 5103
0:0:0:0:0:0:0:1 - - [15/May/2019:22:24:04 +0200] "GET /asf-logo-wide.svg HTTP/1.1" 200 27530
0:0:0:0:0:0:0:1 - - [15/May/2019:22:24:04 +0200] "GET /bg-nav.png HTTP/1.1" 200 1401
0:0:0:0:0:0:0:1 - - [15/May/2019:22:24:04 +0200] "GET /bg-upper.png HTTP/1.1" 200 3103
0:0:0:0:0:0:0:1 - - [15/May/2019:22:24:04 +0200] "GET /bg-button.png HTTP/1.1" 200 713
0:0:0:0:0:0:0:1 - - [15/May/2019:22:24:04 +0200] "GET /bg-middle.png HTTP/1.1" 200 1918
0:0:0:0:0:0:0:1 - - [15/May/2019:22:24:08 +0200] "GET /G37 HTTP/1.1" 404 1088
0:0:0:0:0:0:0:1 - - [15/May/2019:22:24:12 +0200] "GET /G37/api/login HTTP/1.1" 404 1106
0:0:0:0:0:0:0:1 - - [15/May/2019:22:24:15 +0200] "GET /G37/api/login HTTP/1.1" 404 1106
0:0:0:0:0:0:0:1 - - [15/May/2019:22:24:15 +0200] "GET /G37/api/login HTTP/1.1" 404 1106
0:0:0:0:0:0:0:1 - - [15/May/2019:22:24:15 +0200] "GET /G37/api/login HTTP/1.1" 404 1106
0:0:0:0:0:0:0:1 - - [15/May/2019:22:24:16 +0200] "GET /G37/api/login HTTP/1.1" 404 1106
0:0:0:0:0:0:0:1 - - [15/May/2019:22:24:16 +0200] "GET /G37/api/login HTTP/1.1" 404 1106
0:0:0:0:0:0:0:1 - - [15/May/2019:22:24:16 +0200] "GET /G37/api/login HTTP/1.1" 404 1106
127.0.0.1 - - [15/May/2019:22:24:43 +0200] "GET / HTTP/1.1" 200 11403
0:0:0:0:0:0:0:1 - - [15/May/2019:22:24:59 +0200] "GET / HTTP/1.1" 200 11403
0:0:0:0:0:0:0:1 - - [15/May/2019:22:25:09 +0200] "GET /manager/html HTTP/1.1" 401 2562
0:0:0:0:0:0:0:1 - - [15/May/2019:22:25:11 +0200] "GET /manager/html HTTP/1.1" 401 2562
0:0:0:0:0:0:0:1 - - [15/May/2019:22:25:16 +0200] "GET /manager/html HTTP/1.1" 401 2562
127.0.0.1 - - [15/May/2019:22:26:13 +0200] "GET / HTTP/1.1" 200 11403
0:0:0:0:0:0:0:1 - - [15/May/2019:22:26:30 +0200] "GET / HTTP/1.1" 200 11403
0:0:0:0:0:0:0:1 - - [15/May/2019:22:26:31 +0200] "GET /manager/html HTTP/1.1" 401 2562
0:0:0:0:0:0:0:1 - tomcat [15/May/2019:22:26:35 +0200] "GET /manager/html HTTP/1.1" 200 19960
0:0:0:0:0:0:0:1 - - [15/May/2019:22:26:35 +0200] "GET /manager/images/tomcat.gif HTTP/1.1" 200 2066
0:0:0:0:0:0:0:1 - - [15/May/2019:22:26:35 +0200] "GET /manager/images/asf-logo.svg HTTP/1.1" 200 20712
0:0:0:0:0:0:0:1 - - [15/May/2019:22:26:46 +0200] "GET /examples HTTP/1.1" 302 -
0:0:0:0:0:0:0:1 - - [15/May/2019:22:26:46 +0200] "GET /examples/ HTTP/1.1" 200 1156
0:0:0:0:0:0:0:1 - - [15/May/2019:22:26:47 +0200] "GET /examples/servlets HTTP/1.1" 302 -
0:0:0:0:0:0:0:1 - - [15/May/2019:22:26:47 +0200] "GET /examples/servlets/ HTTP/1.1" 200 6789
0:0:0:0:0:0:0:1 - - [15/May/2019:22:26:48 +0200] "GET /examples/servlets/images/execute.gif HTTP/1.1" 200 1242
0:0:0:0:0:0:0:1 - - [15/May/2019:22:26:48 +0200] "GET /examples/servlets/images/code.gif HTTP/1.1" 200 292
0:0:0:0:0:0:0:1 - - [15/May/2019:22:26:48 +0200] "GET /examples/servlets/images/return.gif HTTP/1.1" 200 1231
0:0:0:0:0:0:0:1 - - [15/May/2019:22:26:50 +0200] "GET /examples/servlets/helloworld.html HTTP/1.1" 200 2612
0:0:0:0:0:0:0:1 - - [15/May/2019:22:26:55 +0200] "GET /examples/jsp HTTP/1.1" 302 -
0:0:0:0:0:0:0:1 - - [15/May/2019:22:26:55 +0200] "GET /examples/jsp/ HTTP/1.1" 200 14614
0:0:0:0:0:0:0:1 - - [15/May/2019:22:26:55 +0200] "GET /examples/jsp/images/code.gif HTTP/1.1" 200 292
0:0:0:0:0:0:0:1 - - [15/May/2019:22:26:55 +0200] "GET /examples/jsp/images/execute.gif HTTP/1.1" 200 1242
0:0:0:0:0:0:0:1 - - [15/May/2019:22:26:55 +0200] "GET /examples/jsp/images/return.gif HTTP/1.1" 200 1231
0:0:0:0:0:0:0:1 - - [15/May/2019:22:27:12 +0200] "GET /api HTTP/1.1" 404 1088
0:0:0:0:0:0:0:1 - - [15/May/2019:22:27:16 +0200] "GET /api/login HTTP/1.1" 404 1098
0:0:0:0:0:0:0:1 - - [15/May/2019:22:27:19 +0200] "GET /api/login/ HTTP/1.1" 404 1103
0:0:0:0:0:0:0:1 - - [15/May/2019:22:27:23 +0200] "GET /G37/api/login/ HTTP/1.1" 404 1111
0:0:0:0:0:0:0:1 - tomcat [15/May/2019:22:27:42 +0200] "GET /manager/html/list;jsessionid=816029AF69E833DDB2960615C5ECDE37?org.apache.catalina.filters.CSRF_NONCE=96807A718A67C7F682EAC184D4DB226E HTTP/1.1" 200 18596
0:0:0:0:0:0:0:1 - tomcat [15/May/2019:22:27:43 +0200] "GET /manager/html/list?org.apache.catalina.filters.CSRF_NONCE=61D2E69A6CFB916578CD7A58882B4747 HTTP/1.1" 200 18596
0:0:0:0:0:0:0:1 - tomcat [15/May/2019:22:27:46 +0200] "GET /manager/status?org.apache.catalina.filters.CSRF_NONCE=A1B5186FD0F172E4E7D0C96FD644ECDC HTTP/1.1" 200 7426
127.0.0.1 - - [15/May/2019:22:30:03 +0200] "GET / HTTP/1.1" 200 11403
0:0:0:0:0:0:0:1 - - [15/May/2019:22:30:15 +0200] "GET / HTTP/1.1" 200 11403
0:0:0:0:0:0:0:1 - tomcat [15/May/2019:22:30:17 +0200] "GET /manager/status HTTP/1.1" 200 7160
0:0:0:0:0:0:0:1 - tomcat [15/May/2019:22:30:20 +0200] "GET /manager/html HTTP/1.1" 200 18596
0:0:0:0:0:0:0:1 - - [15/May/2019:22:30:28 +0200] "GET /G37 HTTP/1.1" 404 1088
0:0:0:0:0:0:0:1 - - [15/May/2019:22:30:31 +0200] "GET /api HTTP/1.1" 404 1088
0:0:0:0:0:0:0:1 - - [15/May/2019:22:30:34 +0200] "GET /login HTTP/1.1" 404 1090
127.0.0.1 - - [15/May/2019:22:31:27 +0200] "GET / HTTP/1.1" 200 11403
0:0:0:0:0:0:0:1 - - [15/May/2019:22:31:36 +0200] "GET / HTTP/1.1" 200 11403
0:0:0:0:0:0:0:1 - - [15/May/2019:22:31:40 +0200] "GET /rest HTTP/1.1" 404 1089
